<?xml version="1.0" encoding="UTF-8"?>
<svg width="229px" height="241px" viewBox="0 0 229 241" version="1.1" xmlns="http://www.w3.org/2000/svg" xmlns:xlink="http://www.w3.org/1999/xlink">
    <defs>
        <rect id="path-1" x="0" y="0" width="322" height="322"></rect>
    </defs>
    <g id="Page-1" stroke="none" stroke-width="1" fill="none" fill-rule="evenodd">
        <g id="Artboard" transform="translate(-124.000000, -131.000000)">
            <g id="Oval-+-Oval-Mask" transform="translate(77.000000, 50.000000)">
                <mask id="mask-2" fill="white">
                    <use xlink:href="#path-1"></use>
                </mask>
                <g id="Mask"></g>
                <ellipse id="Oval" fill="#fbcf83" mask="url(#mask-2)" cx="161.5" cy="319.5" rx="114.5" ry="127.5"></ellipse>
                <circle id="Oval" fill="#fbcf83" mask="url(#mask-2)" cx="162" cy="140" r="59"></circle>
            </g>
        </g>
    </g>
</svg>